{
    "irc_nick": "IRCBot",
    "irc_client": {
        "server": "irc.freenode.net",
        "nick": "IRCBot",
        "options": {
            "userName": null,
            "password": null,
            "realName": null,
            "port": 7000,
            "retryCount": 10,
            "sasl": true,
            "secure": true,
            "stripColors": false
        }
    },
    "channels": [
        "#test-channel"
    ],
    "discord": {
        "username": "DiscordBot",
        "avatar_url": "",
        "id": "",
        "token": ""
    }
}